…
```
##Analysis part 7
The analysis is to see the trending of sales by each game genres from 1980 to 2016. To fulfill this requirement, package dplyr is used as usual, then creating a new dataframe called genre_trend, which select column Genre, Year_of_Release and Global_Sales, omitting NA in Genre and filtering by Genre. After these steps, using ggplot to create histograms which x equals year and y equals sales revenues. Then facet_wrap is used to create twelve graphs by each genres. Finally, theme function is used to adjust font size and format.
Before year 2000, game genres of adventure, platform, puzzle, role-playing, shooter and strategy were popular. However, through time passing, action, fighting, misc, racing, stimulation and sports games became more popular. It can also be seen that each genre has its booming age, year from 2000 to 2012 is a booming time for most games.
```{r, fig.height=8, fig.width=10}
#Number of sales by genre each year
library(dplyr)
genre_trend <- games_sales %>%
  select(Genre,Year_of_Release,Global_Sales)%>%
  filter(Genre!="")%>%
  group_by(Genre)
genre_trend
## # A tibble: 16,715 × 3
## # Groups:   Genre [12]
##    Genre        Year_of_Release Global_Sales
##    <chr>                  <dbl>        <dbl>
##  1 Sports                  2006         82.5
##  2 Platform                1985         40.2
##  3 Racing                  2008         35.5
##  4 Sports                  2009         32.8
##  5 Role-Playing            1996         31.4
##  6 Puzzle                  1989         30.3
##  7 Platform                2006         29.8
##  8 Misc                    2006         28.9
##  9 Platform                2009         28.3
## 10 Shooter                 1984         28.3
## # … with 16,705 more rows
…
